<?xml version="1.0" encoding="utf-8"?>
<!-- Generator: Adobe Illustrator 16.0.3, SVG Export Plug-In . SVG Version: 6.00 Build 0)  -->
<!DOCTYPE svg PUBLIC "-//W3C//DTD SVG 1.1//EN" "http://www.w3.org/Graphics/SVG/1.1/DTD/svg11.dtd">
<svg version="1.1" id="Layer_1" xmlns="http://www.w3.org/2000/svg" xmlns:xlink="http://www.w3.org/1999/xlink" x="0px" y="0px"
	 width="294.431px" height="30.863px" viewBox="0 0 294.431 30.863" enable-background="new 0 0 294.431 30.863"
	 xml:space="preserve">
<g>
	<path fill="#FFFFFF" d="M8.992,24.289c-1.099,0-2.193-0.034-3.282-0.101c-1.089-0.068-2.222-0.227-3.397-0.477V4.282
		c0.925-0.173,1.937-0.304,3.036-0.39c1.099-0.087,2.12-0.13,3.064-0.13c1.272,0,2.443,0.092,3.513,0.275
		c1.07,0.183,1.99,0.497,2.761,0.939c0.771,0.444,1.374,1.026,1.807,1.749c0.434,0.723,0.65,1.615,0.65,2.674
		c0,1.6-0.771,2.862-2.313,3.788c1.272,0.482,2.14,1.138,2.602,1.966c0.462,0.829,0.694,1.764,0.694,2.805
		c0,2.101-0.766,3.682-2.298,4.741C14.297,23.759,12.017,24.289,8.992,24.289z M6.708,11.856h2.197c1.388,0,2.38-0.178,2.978-0.535
		c0.597-0.356,0.896-0.93,0.896-1.72c0-0.81-0.309-1.378-0.925-1.706c-0.617-0.327-1.522-0.491-2.717-0.491
		c-0.386,0-0.8,0.005-1.243,0.014c-0.444,0.01-0.839,0.034-1.186,0.072V11.856z M6.708,15.297v5.175
		c0.328,0.039,0.684,0.068,1.07,0.087c0.385,0.019,0.81,0.029,1.272,0.029c1.349,0,2.438-0.192,3.267-0.578
		c0.829-0.385,1.243-1.099,1.243-2.14c0-0.925-0.347-1.585-1.041-1.98c-0.694-0.395-1.687-0.593-2.978-0.593H6.708z"/>
	<path fill="#FFFFFF" d="M30.617,12.637c-0.386-0.096-0.839-0.197-1.359-0.304c-0.521-0.105-1.08-0.159-1.677-0.159
		c-0.27,0-0.592,0.024-0.968,0.072c-0.376,0.048-0.661,0.101-0.853,0.159v11.623h-4.308V9.63c0.771-0.27,1.681-0.525,2.732-0.766
		c1.05-0.241,2.221-0.361,3.513-0.361c0.231,0,0.511,0.014,0.838,0.043c0.328,0.029,0.655,0.067,0.983,0.116
		c0.327,0.048,0.655,0.106,0.983,0.173c0.327,0.068,0.607,0.149,0.838,0.246L30.617,12.637z"/>
	<path fill="#FFFFFF" d="M38.365,4.426c0,0.791-0.256,1.412-0.766,1.865c-0.511,0.453-1.113,0.68-1.807,0.68
		s-1.296-0.227-1.807-0.68c-0.511-0.453-0.766-1.074-0.766-1.865c0-0.79,0.255-1.412,0.766-1.865
		c0.51-0.453,1.113-0.679,1.807-0.679s1.296,0.227,1.807,0.679C38.109,3.015,38.365,3.636,38.365,4.426z M37.96,24.028h-4.308V8.821
		h4.308V24.028z"/>
	<path fill="#FFFFFF" d="M55.133,22.12c0,2.486-0.631,4.332-1.894,5.537c-1.263,1.205-3.214,1.807-5.854,1.807
		c-0.925,0-1.851-0.082-2.775-0.246c-0.925-0.164-1.783-0.381-2.573-0.65l0.751-3.614c0.675,0.27,1.383,0.481,2.125,0.636
		s1.585,0.231,2.53,0.231c1.233,0,2.106-0.27,2.617-0.81c0.51-0.54,0.766-1.233,0.766-2.082V22.38
		c-0.462,0.212-0.939,0.371-1.431,0.477c-0.491,0.106-1.026,0.159-1.604,0.159c-2.101,0-3.71-0.622-4.828-1.865
		c-1.118-1.244-1.677-2.982-1.677-5.219c0-1.118,0.174-2.134,0.521-3.05c0.347-0.915,0.853-1.701,1.518-2.356
		s1.479-1.161,2.443-1.518c0.964-0.356,2.053-0.535,3.267-0.535c0.521,0,1.055,0.024,1.604,0.072
		c0.549,0.048,1.094,0.111,1.634,0.188c0.539,0.077,1.055,0.169,1.546,0.274c0.492,0.106,0.93,0.217,1.315,0.333V22.12z
		 M45.68,15.933c0,2.41,0.973,3.614,2.92,3.614c0.443,0,0.857-0.058,1.243-0.173c0.385-0.116,0.713-0.25,0.983-0.405v-6.881
		c-0.212-0.039-0.462-0.072-0.751-0.101c-0.29-0.029-0.627-0.043-1.012-0.043c-1.137,0-1.985,0.376-2.544,1.127
		C45.958,13.823,45.68,14.777,45.68,15.933z"/>
	<path fill="#FFFFFF" d="M59.181,24.028V2.287l4.308-0.694v7.286c0.289-0.096,0.66-0.188,1.113-0.275
		c0.453-0.087,0.891-0.13,1.315-0.13c1.233,0,2.26,0.169,3.079,0.506c0.819,0.337,1.475,0.814,1.966,1.431
		c0.492,0.617,0.838,1.349,1.041,2.197c0.202,0.848,0.303,1.792,0.303,2.833v8.587h-4.308v-8.066c0-1.388-0.178-2.371-0.535-2.949
		c-0.357-0.578-1.017-0.868-1.98-0.868c-0.386,0-0.748,0.034-1.084,0.102c-0.337,0.067-0.641,0.14-0.911,0.217v11.564H59.181z"/>
	<path fill="#FFFFFF" d="M76.065,5.034l4.308-0.694v4.481h5.175v3.585h-5.175v5.349c0,0.906,0.159,1.629,0.477,2.168
		c0.318,0.54,0.958,0.81,1.923,0.81c0.462,0,0.939-0.043,1.431-0.13c0.491-0.087,0.939-0.207,1.344-0.362l0.607,3.354
		c-0.521,0.212-1.099,0.395-1.734,0.549c-0.636,0.154-1.417,0.231-2.342,0.231c-1.176,0-2.149-0.159-2.92-0.477
		c-0.771-0.318-1.388-0.761-1.85-1.33c-0.463-0.568-0.786-1.258-0.969-2.067s-0.274-1.706-0.274-2.688V5.034z"/>
	<path fill="#FFFFFF" d="M113.823,13.996c0,1.735-0.27,3.248-0.81,4.539c-0.54,1.292-1.306,2.361-2.298,3.209
		c-0.993,0.849-2.203,1.484-3.628,1.908c-1.427,0.424-3.026,0.636-4.799,0.636c-0.81,0-1.754-0.034-2.833-0.101
		c-1.08-0.068-2.14-0.207-3.18-0.419V4.253c1.041-0.192,2.125-0.323,3.252-0.39s2.096-0.102,2.906-0.102
		c1.715,0,3.271,0.193,4.669,0.579s2.597,0.993,3.6,1.821c1.002,0.829,1.773,1.889,2.313,3.18
		C113.553,10.633,113.823,12.185,113.823,13.996z M100.784,20.356c0.212,0.02,0.458,0.034,0.737,0.043
		c0.279,0.01,0.611,0.015,0.997,0.015c2.255,0,3.927-0.568,5.016-1.706c1.089-1.137,1.634-2.708,1.634-4.712
		c0-2.101-0.521-3.691-1.562-4.771c-1.041-1.079-2.688-1.619-4.944-1.619c-0.308,0-0.626,0.005-0.954,0.015
		s-0.636,0.034-0.925,0.072V20.356z"/>
	<path fill="#FFFFFF" d="M122.756,8.416c1.272,0,2.332,0.145,3.18,0.434c0.848,0.289,1.527,0.704,2.038,1.243
		c0.511,0.54,0.872,1.195,1.084,1.966c0.211,0.771,0.318,1.629,0.318,2.573v8.962c-0.617,0.135-1.475,0.294-2.573,0.477
		s-2.429,0.274-3.99,0.274c-0.983,0-1.875-0.086-2.674-0.26c-0.8-0.173-1.489-0.458-2.067-0.853
		c-0.578-0.395-1.021-0.911-1.33-1.547c-0.309-0.636-0.463-1.417-0.463-2.342c0-0.886,0.178-1.638,0.535-2.255
		c0.356-0.616,0.833-1.108,1.431-1.474c0.597-0.366,1.281-0.631,2.053-0.795c0.771-0.164,1.57-0.246,2.399-0.246
		c0.559,0,1.055,0.024,1.489,0.072c0.434,0.048,0.785,0.111,1.055,0.188V14.43c0-0.732-0.222-1.32-0.665-1.764
		c-0.444-0.443-1.214-0.665-2.313-0.665c-0.733,0-1.456,0.054-2.168,0.159c-0.713,0.106-1.33,0.256-1.85,0.448l-0.549-3.47
		c0.25-0.077,0.563-0.159,0.939-0.246c0.376-0.086,0.785-0.164,1.229-0.231c0.443-0.067,0.911-0.125,1.402-0.174
		C121.759,8.44,122.255,8.416,122.756,8.416z M123.103,21.021c0.424,0,0.829-0.009,1.214-0.029c0.385-0.019,0.694-0.048,0.925-0.087
		v-3.267c-0.174-0.038-0.434-0.077-0.781-0.115s-0.665-0.058-0.954-0.058c-0.405,0-0.786,0.024-1.142,0.072
		c-0.357,0.048-0.67,0.14-0.939,0.275c-0.27,0.135-0.482,0.318-0.636,0.549c-0.154,0.231-0.231,0.52-0.231,0.867
		c0,0.675,0.226,1.142,0.679,1.402C121.691,20.892,122.313,21.021,123.103,21.021z"/>
	<path fill="#FFFFFF" d="M146.435,8.821c-0.869,2.93-1.777,5.677-2.724,8.24c-0.947,2.564-1.981,5.05-3.102,7.459
		c-0.405,0.867-0.811,1.604-1.216,2.211c-0.406,0.607-0.85,1.108-1.332,1.503s-1.028,0.684-1.636,0.868
		c-0.608,0.183-1.317,0.274-2.128,0.274c-0.676,0-1.299-0.063-1.868-0.188c-0.569-0.126-1.037-0.266-1.404-0.42l0.752-3.44
		c0.443,0.154,0.839,0.26,1.186,0.318c0.347,0.058,0.714,0.086,1.1,0.086c0.771,0,1.364-0.207,1.778-0.622
		c0.415-0.415,0.767-0.988,1.056-1.72c-0.984-1.927-1.967-4.091-2.951-6.49c-0.983-2.4-1.909-5.093-2.776-8.081h4.568
		c0.193,0.752,0.421,1.566,0.683,2.443c0.261,0.877,0.537,1.764,0.828,2.66c0.29,0.896,0.585,1.769,0.886,2.616
		c0.3,0.849,0.586,1.619,0.857,2.313c0.251-0.694,0.513-1.464,0.784-2.313c0.271-0.848,0.537-1.72,0.798-2.616
		c0.261-0.896,0.513-1.783,0.754-2.66c0.242-0.876,0.459-1.691,0.653-2.443H146.435z"/>
	<path fill="#FFFFFF" d="M153.085,20.935c0.79,0,1.349-0.077,1.677-0.231c0.327-0.154,0.491-0.453,0.491-0.896
		c0-0.347-0.212-0.65-0.636-0.911s-1.07-0.554-1.938-0.882c-0.675-0.25-1.286-0.51-1.836-0.781c-0.549-0.27-1.017-0.592-1.401-0.968
		c-0.387-0.376-0.685-0.824-0.896-1.344c-0.213-0.521-0.318-1.146-0.318-1.879c0-1.426,0.53-2.554,1.59-3.383
		c1.061-0.828,2.516-1.243,4.366-1.243c0.925,0,1.812,0.083,2.659,0.246c0.849,0.164,1.522,0.342,2.024,0.535l-0.752,3.354
		c-0.501-0.173-1.046-0.327-1.634-0.462c-0.588-0.135-1.248-0.202-1.98-0.202c-1.349,0-2.023,0.375-2.023,1.127
		c0,0.173,0.029,0.328,0.087,0.462c0.058,0.135,0.174,0.265,0.347,0.39c0.174,0.126,0.409,0.261,0.708,0.407
		c0.299,0.146,0.68,0.306,1.143,0.48c0.944,0.35,1.725,0.695,2.342,1.035c0.616,0.34,1.104,0.708,1.46,1.102
		s0.607,0.832,0.752,1.313s0.217,1.039,0.217,1.673c0,1.5-0.564,2.635-1.691,3.404c-1.128,0.769-2.723,1.154-4.785,1.154
		c-1.35,0-2.472-0.116-3.368-0.347c-0.896-0.231-1.518-0.423-1.864-0.578l0.723-3.498c0.732,0.289,1.483,0.516,2.255,0.679
		C151.571,20.853,152.333,20.935,153.085,20.935z"/>
	<path fill="#FFFFFF" d="M187.518,13.996c0,1.735-0.271,3.248-0.81,4.539c-0.54,1.292-1.306,2.361-2.299,3.209
		c-0.992,0.849-2.202,1.484-3.628,1.908c-1.427,0.424-3.026,0.636-4.8,0.636c-0.81,0-1.754-0.034-2.833-0.101
		c-1.08-0.068-2.14-0.207-3.181-0.419V4.253c1.041-0.192,2.125-0.323,3.253-0.39s2.096-0.102,2.905-0.102
		c1.716,0,3.271,0.193,4.67,0.579c1.396,0.386,2.597,0.993,3.6,1.821c1.002,0.829,1.772,1.889,2.313,3.18
		C187.247,10.633,187.518,12.185,187.518,13.996z M174.479,20.356c0.212,0.02,0.457,0.034,0.737,0.043
		c0.279,0.01,0.611,0.015,0.997,0.015c2.255,0,3.927-0.568,5.017-1.706c1.089-1.137,1.633-2.708,1.633-4.712
		c0-2.101-0.52-3.691-1.561-4.771c-1.041-1.079-2.689-1.619-4.944-1.619c-0.309,0-0.626,0.005-0.954,0.015s-0.636,0.034-0.925,0.072
		V20.356z"/>
	<path fill="#FFFFFF" d="M205.211,16.396c0,1.195-0.173,2.289-0.521,3.282c-0.347,0.993-0.848,1.841-1.503,2.544
		c-0.655,0.704-1.441,1.249-2.356,1.634c-0.916,0.385-1.942,0.578-3.079,0.578c-1.118,0-2.135-0.193-3.05-0.578
		c-0.916-0.385-1.701-0.93-2.356-1.634c-0.655-0.703-1.167-1.551-1.532-2.544c-0.366-0.993-0.55-2.086-0.55-3.282
		c0-1.195,0.188-2.284,0.564-3.267c0.375-0.983,0.896-1.822,1.561-2.516s1.455-1.233,2.371-1.619
		c0.915-0.385,1.912-0.578,2.992-0.578c1.099,0,2.105,0.193,3.021,0.578c0.915,0.386,1.7,0.925,2.356,1.619
		c0.654,0.694,1.166,1.532,1.532,2.516C205.027,14.112,205.211,15.201,205.211,16.396z M196.104,15.924
		c0.65-0.387,0.791-1.387,0.313-2.229c-0.477-0.842-1.395-1.209-2.046-0.822c-0.65,0.389-0.792,1.389-0.313,2.23
		C194.534,15.944,195.452,16.313,196.104,15.924L196.104,15.924z M200.615,16.414c-0.043-0.027-0.082-0.051-0.109-0.077
		c-0.557-0.521-1.701-0.941-3.098-0.41l-0.053,0.02c-1.367,0.543-1.947,1.6-2.033,2.408c-0.004,0.027-0.018,0.068-0.033,0.109
		c-0.02,0.051-0.037,0.102-0.049,0.152c-0.126,0.545-0.088,1.088,0.103,1.529c0.202,0.469,0.556,0.771,0.991,0.85
		c0.176,0.031,0.348,0.016,0.51-0.05c0.333-0.132,0.57-0.433,0.844-0.783c0.176-0.222,0.355-0.45,0.574-0.656
		c0.026-0.021,0.139-0.082,0.333-0.157c0.23-0.092,0.404-0.139,0.442-0.141c0.293,0.008,0.567,0.06,0.832,0.111
		c0.407,0.078,0.789,0.152,1.127,0.02c0.143-0.058,0.27-0.149,0.374-0.275c0.577-0.685,0.304-1.832-0.608-2.555
		C200.715,16.473,200.666,16.442,200.615,16.414L200.615,16.414z M198.596,15.014c0.741-0.141,1.203-1.035,1.03-1.993
		c-0.174-0.957-0.919-1.622-1.659-1.481c-0.742,0.143-1.205,1.036-1.029,1.994C197.111,14.492,197.854,15.156,198.596,15.014
		L198.596,15.014z M201.02,13.444c-0.551,0.027-0.957,0.6-0.925,1.303s0.489,1.232,1.042,1.207c0.552-0.027,0.957-0.6,0.925-1.303
		C202.028,13.948,201.571,13.418,201.02,13.444L201.02,13.444z M194.54,16.569c-0.472-0.57-1.192-0.713-1.642-0.326
		c-0.448,0.39-0.43,1.141,0.042,1.713c0.472,0.571,1.192,0.714,1.642,0.325C195.029,17.893,195.012,17.141,194.54,16.569
		L194.54,16.569z"/>
	<path fill="#FFFFFF" d="M221.661,22.12c0,2.486-0.631,4.332-1.894,5.537s-3.214,1.807-5.854,1.807
		c-0.925,0-1.851-0.082-2.775-0.246c-0.926-0.164-1.783-0.381-2.573-0.65l0.752-3.614c0.674,0.27,1.383,0.481,2.125,0.636
		c0.741,0.154,1.585,0.231,2.529,0.231c1.233,0,2.105-0.27,2.616-0.81s0.767-1.233,0.767-2.082V22.38
		c-0.463,0.212-0.939,0.371-1.431,0.477c-0.492,0.106-1.026,0.159-1.605,0.159c-2.101,0-3.71-0.622-4.828-1.865
		c-1.118-1.244-1.677-2.982-1.677-5.219c0-1.118,0.174-2.134,0.521-3.05c0.347-0.915,0.853-1.701,1.518-2.356
		s1.479-1.161,2.443-1.518c0.964-0.356,2.053-0.535,3.267-0.535c0.521,0,1.056,0.024,1.605,0.072
		c0.549,0.048,1.093,0.111,1.633,0.188s1.056,0.169,1.547,0.274c0.491,0.106,0.93,0.217,1.315,0.333V22.12z M212.207,15.933
		c0,2.41,0.974,3.614,2.92,3.614c0.443,0,0.857-0.058,1.243-0.173s0.713-0.25,0.983-0.405v-6.881
		c-0.212-0.039-0.463-0.072-0.752-0.101s-0.626-0.043-1.012-0.043c-1.138,0-1.985,0.376-2.544,1.127
		C212.486,13.823,212.207,14.777,212.207,15.933z"/>
	<path fill="#FFFFFF" d="M242.073,24.433c-3.258,0-5.739-0.906-7.445-2.718c-1.705-1.812-2.559-4.385-2.559-7.719
		c0-1.658,0.261-3.137,0.781-4.438c0.521-1.301,1.232-2.399,2.139-3.296s1.985-1.576,3.238-2.038
		c1.253-0.463,2.611-0.694,4.077-0.694c0.848,0,1.618,0.063,2.313,0.188c0.694,0.126,1.301,0.271,1.821,0.434
		s0.954,0.333,1.301,0.506c0.348,0.173,0.598,0.309,0.752,0.405l-1.301,3.643c-0.617-0.327-1.335-0.607-2.154-0.838
		c-0.819-0.231-1.749-0.347-2.79-0.347c-0.693,0-1.373,0.116-2.038,0.347c-0.665,0.231-1.253,0.603-1.764,1.113
		s-0.92,1.171-1.229,1.98s-0.463,1.792-0.463,2.949c0,0.925,0.102,1.788,0.304,2.588s0.53,1.489,0.983,2.067
		c0.452,0.578,1.045,1.037,1.778,1.374c0.731,0.337,1.618,0.506,2.659,0.506c0.655,0,1.243-0.039,1.764-0.116
		c0.521-0.077,0.983-0.168,1.388-0.274c0.405-0.106,0.762-0.227,1.07-0.362c0.308-0.134,0.587-0.26,0.838-0.375l1.243,3.614
		c-0.636,0.386-1.532,0.733-2.688,1.041S243.596,24.433,242.073,24.433z"/>
	<path fill="#FFFFFF" d="M257.136,8.416c1.271,0,2.332,0.145,3.18,0.434c0.849,0.289,1.527,0.704,2.039,1.243
		c0.51,0.54,0.871,1.195,1.084,1.966c0.212,0.771,0.317,1.629,0.317,2.573v8.962c-0.616,0.135-1.474,0.294-2.572,0.477
		s-2.429,0.274-3.99,0.274c-0.983,0-1.875-0.086-2.674-0.26c-0.801-0.173-1.489-0.458-2.067-0.853s-1.022-0.911-1.33-1.547
		c-0.309-0.636-0.463-1.417-0.463-2.342c0-0.886,0.178-1.638,0.535-2.255c0.356-0.616,0.833-1.108,1.431-1.474
		s1.282-0.631,2.053-0.795c0.771-0.164,1.571-0.246,2.4-0.246c0.559,0,1.055,0.024,1.488,0.072c0.434,0.048,0.785,0.111,1.056,0.188
		V14.43c0-0.732-0.222-1.32-0.665-1.764c-0.443-0.443-1.215-0.665-2.313-0.665c-0.732,0-1.455,0.054-2.168,0.159
		c-0.713,0.106-1.33,0.256-1.851,0.448l-0.549-3.47c0.25-0.077,0.563-0.159,0.939-0.246c0.376-0.086,0.785-0.164,1.229-0.231
		s0.911-0.125,1.402-0.174C256.138,8.44,256.634,8.416,257.136,8.416z M257.482,21.021c0.424,0,0.828-0.009,1.214-0.029
		c0.386-0.019,0.694-0.048,0.926-0.087v-3.267c-0.174-0.038-0.434-0.077-0.78-0.115c-0.348-0.039-0.665-0.058-0.954-0.058
		c-0.405,0-0.786,0.024-1.143,0.072c-0.356,0.048-0.67,0.14-0.939,0.275c-0.271,0.135-0.482,0.318-0.636,0.549
		c-0.155,0.231-0.231,0.52-0.231,0.867c0,0.675,0.227,1.142,0.68,1.402C256.07,20.892,256.692,21.021,257.482,21.021z"/>
	<path fill="#FFFFFF" d="M276.823,12.637c-0.386-0.096-0.838-0.197-1.358-0.304c-0.521-0.105-1.08-0.159-1.677-0.159
		c-0.271,0-0.593,0.024-0.969,0.072c-0.376,0.048-0.66,0.101-0.853,0.159v11.623h-4.309V9.63c0.771-0.27,1.682-0.525,2.732-0.766
		c1.051-0.241,2.222-0.361,3.513-0.361c0.231,0,0.511,0.014,0.839,0.043c0.327,0.029,0.654,0.067,0.982,0.116
		s0.655,0.106,0.983,0.173c0.327,0.068,0.607,0.149,0.838,0.246L276.823,12.637z"/>
	<path fill="#FFFFFF" d="M278.848,16.54c0-1.349,0.207-2.53,0.622-3.542c0.414-1.012,0.958-1.855,1.633-2.53
		c0.675-0.674,1.45-1.185,2.328-1.532c0.877-0.347,1.777-0.521,2.703-0.521c2.158,0,3.864,0.661,5.117,1.98
		c1.253,1.32,1.879,3.263,1.879,5.826c0,0.251-0.01,0.525-0.028,0.824c-0.02,0.299-0.039,0.563-0.059,0.795h-9.771
		c0.096,0.887,0.511,1.59,1.243,2.11s1.715,0.781,2.949,0.781c0.79,0,1.565-0.072,2.327-0.217c0.761-0.145,1.383-0.323,1.864-0.535
		l0.579,3.498c-0.231,0.116-0.54,0.231-0.926,0.347c-0.386,0.115-0.814,0.217-1.286,0.303c-0.473,0.087-0.979,0.159-1.519,0.217
		c-0.539,0.058-1.079,0.087-1.618,0.087c-1.369,0-2.56-0.203-3.571-0.607c-1.012-0.405-1.85-0.959-2.515-1.663
		s-1.157-1.537-1.475-2.501C279.007,18.699,278.848,17.658,278.848,16.54z M288.967,14.892c-0.02-0.366-0.082-0.723-0.188-1.069
		c-0.106-0.347-0.271-0.655-0.492-0.925c-0.222-0.27-0.501-0.492-0.838-0.665c-0.338-0.173-0.757-0.26-1.258-0.26
		c-0.482,0-0.896,0.083-1.243,0.246c-0.347,0.164-0.636,0.381-0.867,0.651s-0.41,0.583-0.535,0.939
		c-0.125,0.357-0.217,0.718-0.274,1.084H288.967z"/>
</g>
</svg>
